<svg xmlns="http://www.w3.org/2000/svg" width="387" height="257" fill="none" viewBox="0 0 387 257">
    <path fill="#F6C231" d="M120.408 102.957c0 45.313-26.954 61.134-60.204 61.134S0 148.27 0 102.957C0 57.645 60.204 0 60.204 0s60.204 57.645 60.204 102.957z"/>
    <path fill="#57585A" d="M58.183 157.052l.619-37.897 25.745-46.883-25.648 40.938.278-17.04L76.92 62.252l-17.67 29.41.5-30.646 19-27.005L59.83 56.195 60.142 0l-1.964 74.392.161-3.068L39.022 41.89 58.03 77.215l-1.8 34.227-.054-.908-22.27-30.974 22.202 34.183-.225 4.281-.04.064.018.351-4.566 86.838h6.101l.732-44.853 22.148-34.1-22.093 30.728z"/>
    <path fill="#F6C231" d="M386.001 105.774c0 45.312-26.954 61.134-60.203 61.134-33.25 0-60.204-15.822-60.204-61.134 0-45.313 60.204-102.958 60.204-102.958s60.203 57.645 60.203 102.958z"/>
    <path fill="#57585A" d="M323.454 159.702l.616-37.856 25.635-46.834-25.538 40.895.276-17.021 17.668-33.884-17.594 29.379.498-30.614 18.918-26.976-18.84 22.161.311-56.136-1.956 74.314.161-3.065-19.234-29.402 18.926 35.287-1.792 34.191-.054-.908-22.174-30.94 22.107 34.146-.224 4.276-.04.064.018.352-4.547 86.746h6.075l.729-44.806 22.053-34.064-21.998 30.695z"/>
    <path fill="#57585A" d="M334.49 212.261c0 10.638-69.818 43.741-155.943 43.741-86.125 0-155.944-33.103-155.944-43.741 0-10.638 64.192-34.511 150.317-34.511 86.125 0 161.57 23.873 161.57 34.511z"/>
    <path fill="#000" d="M334.49 212.261c0 10.638-69.818 43.741-155.943 43.741-86.125 0-155.944-33.103-155.944-43.741 0-10.638 64.192-34.511 150.317-34.511 86.125 0 161.57 23.873 161.57 34.511z" opacity=".1"/>
    <path fill="#57585A" d="M334.49 212.251c0 10.635-69.818 19.257-155.943 19.257-86.125 0-155.944-8.622-155.944-19.257 0-10.635 64.192-34.501 150.317-34.501 86.125 0 161.57 23.866 161.57 34.501z"/>
    <path fill="#3F3D56" d="M231.035 159.105c0 15.097 9.624 27.313 21.517 27.313z"/>
    <path fill="#F1B102" d="M284.936 205.279c0-8.627 6.124-15.607 13.692-15.607zM277.328 190.539c0 8.147 3.402 14.74 7.607 14.74z"/>
    <path fill="#948873" d="M284.936 205.28c0-11.142 6.999-20.159 15.648-20.159z"/>
    <path fill="#A8A8A8" d="M282.543 205.406s1.694-.057 2.204-.451c.511-.393 2.606-.864 2.733-.232.126.632 2.545 3.142.633 3.159-1.913.016-4.444-.323-4.953-.659-.51-.337-.617-1.817-.617-1.817z"/>
    <path fill="#000" d="M288.147 207.668c-1.912.016-4.444-.31-4.953-.634-.388-.246-.543-1.13-.594-1.538l-.057.002s.107 1.424.617 1.748c.509.323 3.041.65 4.953.634.552-.005.743-.209.732-.513-.076.184-.287.298-.698.301z" opacity=".2"/>
    <path fill="#000" d="M199.085 213.08c35.05 0 63.464-3.688 63.464-8.237 0-4.55-28.414-8.238-63.464-8.238s-63.464 3.688-63.464 8.238c0 4.549 28.414 8.237 63.464 8.237z" opacity=".1"/>
    <path fill="#4E4F51" d="M112.113 210.693c8.141 0 14.741-1.316 14.741-2.94 0-1.624-6.6-2.941-14.741-2.941-8.142 0-14.742 1.317-14.742 2.941 0 1.624 6.6 2.94 14.742 2.94z"/>
    <path fill="#2F2E41" d="M106.404 105.428c6.756-2.865 15.17-1.05 23.388.211.076-1.527 1.003-3.384.032-4.449-1.179-1.293-1.071-2.652-.361-4.02 1.815-3.495-.785-7.214-3.411-10.307-.592-.695-1.34-1.242-2.183-1.595-.844-.353-1.759-.502-2.671-.436l-4.864.346c-1.184.084-2.313.527-3.237 1.27-.925.741-1.6 1.747-1.935 2.883-1.162 1.575-1.784 3.146-1.392 4.709-1.74 1.185-2.032 2.617-1.25 4.23.663 1.016.655 2.005-.03 2.967-.901 1.226-1.591 2.592-2.042 4.044l-.044.147z"/>
    <path fill="#4B4C4E" d="M266.947 192.303h-137.69c-1.224 0-2.398-.485-3.264-1.349-.866-.863-1.352-2.034-1.352-3.256 49.912-5.785 98.887-5.785 146.923 0 0 1.222-.486 2.393-1.352 3.256-.866.864-2.04 1.349-3.265 1.349z"/>
    <path fill="#57585A" d="M271.564 187.971l-146.923-.271 17.028-28.576.081-.135V96.012c0-.764.151-1.521.444-2.228.293-.706.723-1.347 1.265-1.888.542-.54 1.186-.97 1.894-1.262.708-.292 1.467-.443 2.233-.443h100.218c.766 0 1.525.15 2.233.443.708.293 1.352.722 1.894 1.262.542.54.972 1.182 1.265 1.888.293.707.444 1.464.444 2.228v63.41l17.924 28.549z"/>
    <path fill="#fff" d="M147.454 94.254c-.504 0-.987.2-1.344.556-.356.355-.557.837-.557 1.34v57.422c0 .502.201.984.557 1.34.357.355.84.555 1.344.556h101.298c.504-.001.987-.201 1.344-.556.356-.356.557-.838.557-1.34V96.15c0-.503-.201-.985-.557-1.34-.357-.356-.84-.556-1.344-.556H147.454z"/>
    <path fill="#4B4C4E" d="M147.878 163.051c-.156 0-.308.045-.439.129-.131.083-.236.203-.301.344l-5.247 11.376c-.057.124-.082.26-.073.396.01.136.053.267.127.382.074.114.175.209.295.274.12.066.254.1.391.1h110.338c.139 0 .276-.036.397-.103s.223-.165.296-.283c.073-.117.115-.252.121-.39.006-.139-.023-.276-.085-.4l-5.703-11.376c-.068-.135-.172-.249-.3-.328-.129-.08-.278-.122-.429-.121h-99.388z"/>
    <path fill="#fff" d="M197.697 93.305c.675 0 1.222-.546 1.222-1.219s-.547-1.219-1.222-1.219c-.675 0-1.222.546-1.222 1.219s.547 1.219 1.222 1.219z"/>
    <path fill="#4B4C4E" d="M186.85 178.219c-.18 0-.354.059-.496.168-.142.108-.244.261-.291.433l-1.316 4.875c-.033.121-.037.247-.013.369.024.123.077.238.153.337.076.099.174.179.286.234.112.056.235.084.36.084h25.03c.13 0 .258-.031.373-.09.116-.059.215-.145.291-.251.075-.106.124-.227.142-.356.019-.128.006-.259-.036-.381l-1.692-4.876c-.056-.159-.16-.298-.298-.396-.138-.098-.303-.15-.472-.15H186.85zM253.641 158.043v1.083H141.67l.084-.135v-.948h111.887z"/>
    <path fill="#E4B124" d="M250.518 113.35c10.499 0 19.011-8.489 19.011-18.96 0-10.472-8.512-18.96-19.011-18.96-10.499 0-19.01 8.488-19.01 18.96 0 10.471 8.511 18.96 19.01 18.96z"/>
    <path fill="#fff" d="M258.392 102.651h-15.751c-.288-.001-.564-.115-.768-.318-.203-.203-.318-.478-.318-.766v-9.48c0-.287.115-.562.318-.765.204-.204.48-.318.768-.318h15.751c.289 0 .565.114.768.318.204.203.318.478.319.765v9.48c0 .288-.115.563-.319.766-.203.203-.479.317-.768.318zm-15.751-10.564v9.48h15.752l-.001-9.48h-15.751z"/>
    <path fill="#fff" d="M255.406 92.087h-9.777v-4.334c0-3.139 2.056-5.417 4.888-5.417 2.833 0 4.889 2.278 4.889 5.417v4.334zm-8.691-1.084h7.604v-3.25c0-2.552-1.563-4.334-3.802-4.334-2.238 0-3.802 1.782-3.802 4.334v3.25zM250.518 97.64c.6 0 1.086-.486 1.086-1.084 0-.598-.486-1.083-1.086-1.083-.6 0-1.086.485-1.086 1.083s.486 1.084 1.086 1.084z"/>
    <path fill="#4B4C4E" d="M173.978 133.261h-15.874c-.077 0-.152-.112-.207-.312-.055-.2-.086-.471-.086-.754V117.91c0-.283.031-.554.086-.754.055-.199.13-.312.207-.312h15.874c.078 0 .153.113.208.312.055.2.086.471.086.754v14.285c0 .283-.031.554-.086.754-.055.2-.13.312-.208.312zm-15.874-15.991c-.046.001-.091.068-.124.188s-.052.283-.052.452v14.285c0 .17.019.332.052.452s.078.188.124.188h15.874c.047 0 .092-.068.125-.188s.051-.282.051-.452V117.91c0-.169-.018-.332-.051-.452s-.078-.187-.125-.188h-15.874zM195.353 133.261h-15.874c-.077 0-.152-.112-.207-.312-.055-.2-.086-.471-.086-.754V117.91c0-.283.031-.554.086-.754.055-.199.13-.312.207-.312h15.874c.078 0 .153.113.208.312.055.2.086.471.086.754v14.285c0 .283-.031.554-.086.754-.055.2-.13.312-.208.312zm-15.874-15.991c-.046.001-.091.068-.124.188s-.052.283-.052.452v14.285c0 .17.019.332.052.452s.078.188.124.188h15.874c.047 0 .092-.068.125-.188s.051-.282.051-.452V117.91c0-.169-.018-.332-.051-.452s-.078-.187-.125-.188h-15.874zM216.728 133.261h-15.874c-.077 0-.152-.112-.207-.312-.055-.2-.086-.471-.086-.754V117.91c0-.283.031-.554.086-.754.055-.199.13-.312.207-.312h15.874c.078 0 .153.113.208.312.055.2.086.471.086.754v14.285c0 .283-.031.554-.086.754-.055.2-.13.312-.208.312zm-15.874-15.991c-.046.001-.091.068-.124.188s-.052.283-.052.452v14.285c0 .17.019.332.052.452s.078.188.124.188h15.874c.047 0 .092-.068.125-.188s.051-.282.051-.452V117.91c0-.169-.018-.332-.051-.452s-.078-.187-.125-.188h-15.874zM238.103 133.261h-15.874c-.077 0-.152-.112-.207-.312-.055-.2-.086-.471-.086-.754V117.91c0-.283.031-.554.086-.754.055-.199.13-.312.207-.312h15.874c.078 0 .153.113.208.312.055.2.086.471.086.754v14.285c0 .283-.031.554-.086.754-.055.2-.13.312-.208.312zm-15.874-15.991c-.046.001-.091.068-.124.188s-.052.283-.052.452v14.285c0 .17.019.332.052.452s.078.188.124.188h15.874c.047 0 .092-.068.125-.188s.051-.282.051-.452V117.91c0-.169-.018-.332-.051-.452s-.078-.187-.125-.188h-15.874z"/>
    <path fill="#FFB8B8" d="M141.477 126.478l-14.472 7.673-.183-6.394c4.724-.787 9.218-2.156 13.373-4.385l1.514-3.73c.165-.406.433-.763.778-1.035.344-.272.754-.449 1.189-.516.434-.066.879-.018 1.289.139.411.157.773.417 1.052.756.408.496.613 1.128.571 1.768-.041.64-.325 1.24-.794 1.679l-4.317 4.045z"/>
    <path fill="#2F2E41" d="M106.116 170.786c-.106-.387-.128-.791-.066-1.186.062-.396.208-.773.427-1.109l3.179-4.866c.752-1.151 1.906-1.982 3.237-2.332 1.332-.351 2.747-.195 3.97.436-1.336 2.268-1.15 4.258.462 5.987-2.502 1.218-4.813 2.79-6.864 4.667-.374.254-.804.416-1.254.471-.45.056-.906.003-1.331-.153-.425-.157-.807-.412-1.113-.745-.306-.333-.528-.734-.647-1.17z"/>
    <path fill="#343434" d="M142.137 164.421c-.481.8-1.16 1.463-1.972 1.925-.812.463-1.73.71-2.665.717l-21.119.159-.916-5.298 9.343-2.741-7.878-6.029 8.61-10.049 15.638 14.537c.915.85 1.508 1.987 1.683 3.221.174 1.234-.081 2.49-.724 3.558z"/>
    <path fill="#343434" d="M113.083 200.656h-4.947c-4.44-30.36-8.96-60.804 4.397-72.168l15.754 2.558-2.015 13.337-8.793 10.049-4.396 46.224z"/>
    <path fill="#343434" d="M117.432 207.533c-.387.106-.792.128-1.189.066-.396-.062-.775-.207-1.111-.426l-5.371-.72c-1.154-.75-1.987-1.9-2.339-3.228-.351-1.329-.195-2.74.437-3.96 2.275 1.333 4.27 1.147 6.003-.46 1.225 2.467 3.244 2.316 5.171 4.394.256.374.418.803.473 1.251.056.449.003.904-.154 1.328-.157.424-.413.804-.747 1.11-.333.305-.736.526-1.173.645z"/>
    <path fill="#FFB8B8" d="M124.808 108.208l-9.16-2.192c1.522-3.106 1.647-6.562.916-10.232l6.229-.182c.195 4.564.785 8.827 2.015 12.606z"/>
    <path fill="#54A8EB" d="M127.324 136.547c-6.668 4.532-11.379.155-14.974-6.597.499-4.132-.31-9.077-1.808-14.449-.666-2.37-.417-4.903.697-7.098 1.115-2.196 3.014-3.895 5.324-4.762l7.877 3.288c6.689 5.438 8.005 11.328 5.496 17.54l-2.612 12.078z"/>
    <path fill="#FFB8B8" d="M108.137 112.776l-7.328 3.837 13.006 7.673 1.81 4.453c.121.297.18.615.173.936-.007.32-.079.636-.212.928-.133.292-.324.554-.562.77-.238.215-.517.381-.821.485-.346.119-.714.156-1.077.109-.362-.046-.709-.176-1.012-.379-.304-.203-.556-.473-.738-.789-.182-.317-.287-.671-.309-1.035l-.183-3.103-16.53-5.44c-.558-.184-1.066-.491-1.486-.899-.42-.408-.742-.906-.94-1.457-.29-.802-.305-1.677-.042-2.489.262-.811.787-1.513 1.492-1.995l13.293-9.096 1.466 7.491z"/>
    <path fill="#54A8EB" d="M115.464 113.506c-3.056-1.336-5.835.115-9.342 1.279l-.55-9.683c3.483-1.852 6.804-2.351 9.892-.914v9.318z"/>
    <path fill="#FFB8B8" d="M119.119 100.399c3.23 0 5.848-2.611 5.848-5.832 0-3.221-2.618-5.833-5.848-5.833-3.229 0-5.848 2.612-5.848 5.833s2.619 5.832 5.848 5.832z"/>
    <path fill="#2F2E41" d="M126.115 93.827c-5.79.566-10.202-.379-13.021-3.068v-2.165h12.53l.491 5.233z"/>
    <ellipse cx="166.05" cy="124.859" fill="#57585A" rx="2.608" ry="2.601"/>
    <ellipse cx="187.35" cy="124.859" fill="#57585A" rx="2.608" ry="2.601"/>
</svg>
